<?xml version="1.0" encoding="utf-8"?>
<!DOCTYPE eagle SYSTEM "eagle.dtd">
<eagle version="7.3.0">
<drawing>
<settings>
<setting alwaysvectorfont="no"/>
<setting verticaltext="up"/>
</settings>
<grid distance="1" unitdist="mil" unit="mil" style="lines" multiple="1" display="yes" altdistance="0.005" altunitdist="inch" altunit="mil"/>
<layers>
<layer number="1" name="Top" color="4" fill="1" visible="yes" active="yes"/>
<layer number="16" name="Bottom" color="1" fill="1" visible="yes" active="yes"/>
<layer number="17" name="Pads" color="2" fill="1" visible="yes" active="yes"/>
<layer number="18" name="Vias" color="2" fill="1" visible="yes" active="yes"/>
<layer number="19" name="Unrouted" color="6" fill="1" visible="yes" active="yes"/>
<layer number="20" name="Dimension" color="15" fill="1" visible="yes" active="yes"/>
<layer number="21" name="tPlace" color="7" fill="1" visible="yes" active="yes"/>
<layer number="22" name="bPlace" color="7" fill="1" visible="yes" active="yes"/>
<layer number="23" name="tOrigins" color="15" fill="1" visible="yes" active="yes"/>
<layer number="24" name="bOrigins" color="15" fill="1" visible="yes" active="yes"/>
<layer number="25" name="tNames" color="7" fill="1" visible="yes" active="yes"/>
<layer number="26" name="bNames" color="7" fill="1" visible="yes" active="yes"/>
<layer number="27" name="tValues" color="7" fill="1" visible="yes" active="yes"/>
<layer number="28" name="bValues" color="7" fill="1" visible="yes" active="yes"/>
<layer number="29" name="tStop" color="7" fill="3" visible="yes" active="yes"/>
<layer number="30" name="bStop" color="7" fill="6" visible="yes" active="yes"/>
<layer number="31" name="tCream" color="7" fill="4" visible="yes" active="yes"/>
<layer number="32" name="bCream" color="7" fill="5" visible="yes" active="yes"/>
<layer number="33" name="tFinish" color="6" fill="3" visible="yes" active="yes"/>
<layer number="34" name="bFinish" color="6" fill="6" visible="yes" active="yes"/>
<layer number="35" name="tGlue" color="7" fill="4" visible="yes" active="yes"/>
<layer number="36" name="bGlue" color="7" fill="5" visible="yes" active="yes"/>
<layer number="37" name="tTest" color="7" fill="1" visible="yes" active="yes"/>
<layer number="38" name="bTest" color="7" fill="1" visible="yes" active="yes"/>
<layer number="39" name="tKeepout" color="4" fill="11" visible="yes" active="yes"/>
<layer number="40" name="bKeepout" color="1" fill="11" visible="yes" active="yes"/>
<layer number="41" name="tRestrict" color="4" fill="10" visible="yes" active="yes"/>
<layer number="42" name="bRestrict" color="1" fill="10" visible="yes" active="yes"/>
<layer number="43" name="vRestrict" color="2" fill="10" visible="yes" active="yes"/>
<layer number="44" name="Drills" color="7" fill="1" visible="yes" active="yes"/>
<layer number="45" name="Holes" color="7" fill="1" visible="yes" active="yes"/>
<layer number="46" name="Milling" color="3" fill="1" visible="yes" active="yes"/>
<layer number="47" name="Measures" color="7" fill="1" visible="yes" active="yes"/>
<layer number="48" name="Document" color="7" fill="1" visible="yes" active="yes"/>
<layer number="49" name="Reference" color="7" fill="1" visible="yes" active="yes"/>
<layer number="50" name="dxf" color="7" fill="1" visible="no" active="no"/>
<layer number="51" name="tDocu" color="7" fill="1" visible="yes" active="yes"/>
<layer number="52" name="bDocu" color="7" fill="1" visible="yes" active="yes"/>
<layer number="53" name="tGND_GNDA" color="7" fill="9" visible="no" active="no"/>
<layer number="54" name="bGND_GNDA" color="1" fill="9" visible="no" active="no"/>
<layer number="56" name="wert" color="7" fill="1" visible="no" active="no"/>
<layer number="57" name="tCAD" color="7" fill="1" visible="no" active="no"/>
<layer number="59" name="tCarbon" color="7" fill="1" visible="no" active="no"/>
<layer number="60" name="bCarbon" color="7" fill="1" visible="no" active="no"/>
<layer number="90" name="Modules" color="5" fill="1" visible="no" active="no"/>
<layer number="91" name="Nets" color="2" fill="1" visible="no" active="no"/>
<layer number="92" name="Busses" color="1" fill="1" visible="no" active="no"/>
<layer number="93" name="Pins" color="2" fill="1" visible="no" active="no"/>
<layer number="94" name="Symbols" color="4" fill="1" visible="no" active="no"/>
<layer number="95" name="Names" color="7" fill="1" visible="no" active="no"/>
<layer number="96" name="Values" color="7" fill="1" visible="no" active="no"/>
<layer number="97" name="Info" color="7" fill="1" visible="no" active="no"/>
<layer number="98" name="Guide" color="6" fill="1" visible="no" active="no"/>
<layer number="99" name="SpiceOrder" color="7" fill="1" visible="no" active="no"/>
<layer number="100" name="Muster" color="7" fill="1" visible="no" active="no"/>
<layer number="101" name="Patch_Top" color="12" fill="4" visible="yes" active="yes"/>
<layer number="102" name="Vscore" color="7" fill="1" visible="yes" active="yes"/>
<layer number="103" name="fp3" color="7" fill="1" visible="yes" active="yes"/>
<layer number="104" name="Name" color="7" fill="1" visible="yes" active="yes"/>
<layer number="105" name="Beschreib" color="9" fill="1" visible="yes" active="yes"/>
<layer number="106" name="BGA-Top" color="4" fill="1" visible="yes" active="yes"/>
<layer number="107" name="BD-Top" color="5" fill="1" visible="yes" active="yes"/>
<layer number="108" name="fp8" color="7" fill="1" visible="yes" active="yes"/>
<layer number="109" name="fp9" color="7" fill="1" visible="yes" active="yes"/>
<layer number="110" name="fp0" color="7" fill="1" visible="yes" active="yes"/>
<layer number="111" name="LPC17xx" color="7" fill="1" visible="yes" active="yes"/>
<layer number="112" name="tSilk" color="7" fill="1" visible="yes" active="yes"/>
<layer number="113" name="LOGO" color="7" fill="1" visible="yes" active="yes"/>
<layer number="116" name="Patch_BOT" color="9" fill="4" visible="yes" active="yes"/>
<layer number="118" name="Rect_Pads" color="7" fill="1" visible="yes" active="yes"/>
<layer number="121" name="_tsilk" color="7" fill="1" visible="yes" active="yes"/>
<layer number="122" name="_bsilk" color="7" fill="1" visible="yes" active="yes"/>
<layer number="123" name="tTestmark" color="7" fill="1" visible="yes" active="yes"/>
<layer number="124" name="bTestmark" color="7" fill="1" visible="yes" active="yes"/>
<layer number="125" name="_tNames" color="7" fill="1" visible="yes" active="yes"/>
<layer number="126" name="_bNames" color="7" fill="1" visible="yes" active="yes"/>
<layer number="127" name="_tValues" color="7" fill="1" visible="yes" active="yes"/>
<layer number="128" name="_bValues" color="7" fill="1" visible="yes" active="yes"/>
<layer number="129" name="Mask" color="7" fill="1" visible="yes" active="yes"/>
<layer number="131" name="tAdjust" color="7" fill="1" visible="yes" active="yes"/>
<layer number="132" name="bAdjust" color="7" fill="1" visible="yes" active="yes"/>
<layer number="144" name="Drill_legend" color="7" fill="1" visible="yes" active="yes"/>
<layer number="150" name="Notes" color="7" fill="1" visible="yes" active="yes"/>
<layer number="151" name="HeatSink" color="7" fill="1" visible="yes" active="yes"/>
<layer number="152" name="_bDocu" color="7" fill="1" visible="yes" active="yes"/>
<layer number="153" name="FabDoc1" color="6" fill="1" visible="no" active="no"/>
<layer number="154" name="FabDoc2" color="2" fill="1" visible="no" active="no"/>
<layer number="155" name="FabDoc3" color="7" fill="15" visible="no" active="no"/>
<layer number="199" name="Contour" color="7" fill="1" visible="yes" active="yes"/>
<layer number="200" name="200bmp" color="1" fill="10" visible="yes" active="yes"/>
<layer number="201" name="201bmp" color="2" fill="10" visible="yes" active="yes"/>
<layer number="202" name="202bmp" color="3" fill="10" visible="yes" active="yes"/>
<layer number="203" name="203bmp" color="4" fill="10" visible="yes" active="yes"/>
<layer number="204" name="204bmp" color="5" fill="10" visible="yes" active="yes"/>
<layer number="205" name="205bmp" color="6" fill="10" visible="yes" active="yes"/>
<layer number="206" name="206bmp" color="7" fill="10" visible="yes" active="yes"/>
<layer number="207" name="207bmp" color="8" fill="10" visible="yes" active="yes"/>
<layer number="208" name="208bmp" color="9" fill="10" visible="yes" active="yes"/>
<layer number="209" name="209bmp" color="7" fill="1" visible="yes" active="yes"/>
<layer number="210" name="210bmp" color="7" fill="1" visible="yes" active="yes"/>
<layer number="211" name="211bmp" color="7" fill="1" visible="yes" active="yes"/>
<layer number="212" name="212bmp" color="7" fill="1" visible="yes" active="yes"/>
<layer number="213" name="213bmp" color="7" fill="1" visible="yes" active="yes"/>
<layer number="214" name="214bmp" color="7" fill="1" visible="yes" active="yes"/>
<layer number="215" name="215bmp" color="7" fill="1" visible="yes" active="yes"/>
<layer number="216" name="216bmp" color="7" fill="1" visible="yes" active="yes"/>
<layer number="217" name="217bmp" color="18" fill="1" visible="no" active="no"/>
<layer number="218" name="218bmp" color="19" fill="1" visible="no" active="no"/>
<layer number="219" name="219bmp" color="20" fill="1" visible="no" active="no"/>
<layer number="220" name="220bmp" color="21" fill="1" visible="no" active="no"/>
<layer number="221" name="221bmp" color="22" fill="1" visible="no" active="no"/>
<layer number="222" name="222bmp" color="23" fill="1" visible="no" active="no"/>
<layer number="223" name="223bmp" color="24" fill="1" visible="no" active="no"/>
<layer number="224" name="224bmp" color="25" fill="1" visible="no" active="no"/>
<layer number="231" name="Eagle3D_PG1" color="7" fill="1" visible="no" active="no"/>
<layer number="232" name="Eagle3D_PG2" color="7" fill="1" visible="no" active="no"/>
<layer number="233" name="Eagle3D_PG3" color="7" fill="1" visible="no" active="no"/>
<layer number="248" name="Housing" color="7" fill="1" visible="yes" active="yes"/>
<layer number="249" name="Edge" color="7" fill="1" visible="yes" active="yes"/>
<layer number="250" name="Descript" color="7" fill="1" visible="no" active="no"/>
<layer number="251" name="SMDround" color="7" fill="1" visible="no" active="no"/>
<layer number="254" name="cooling" color="7" fill="1" visible="yes" active="yes"/>
</layers>
<board>
<plain>
<hole x="3" y="47" drill="3.2"/>
<hole x="47" y="47" drill="3.2"/>
<hole x="47" y="3" drill="3.2"/>
<wire x1="0" y1="0" x2="0" y2="50" width="0.4064" layer="20"/>
<wire x1="0" y1="50" x2="50" y2="50" width="0.4064" layer="20"/>
<wire x1="50" y1="50" x2="50" y2="0" width="0.4064" layer="20"/>
<wire x1="50" y1="0" x2="0" y2="0" width="0.4064" layer="20"/>
<text x="29.21" y="13.97" size="1.016" layer="21" font="vector" rot="R180" align="center">Tinkerman 2015</text>
<rectangle x1="44.0055" y1="38.9763" x2="44.0563" y2="39.0017" layer="25"/>
<rectangle x1="47.1043" y1="38.9763" x2="47.1551" y2="39.0017" layer="25"/>
<rectangle x1="43.9801" y1="39.0017" x2="44.1071" y2="39.0271" layer="25"/>
<rectangle x1="47.0535" y1="39.0017" x2="47.1805" y2="39.0271" layer="25"/>
<rectangle x1="43.9547" y1="39.0271" x2="44.1325" y2="39.0525" layer="25"/>
<rectangle x1="47.0281" y1="39.0271" x2="47.2059" y2="39.0525" layer="25"/>
<rectangle x1="43.9293" y1="39.0525" x2="44.1833" y2="39.0779" layer="25"/>
<rectangle x1="46.9773" y1="39.0525" x2="47.2313" y2="39.0779" layer="25"/>
<rectangle x1="43.9039" y1="39.0779" x2="44.2087" y2="39.1033" layer="25"/>
<rectangle x1="46.9519" y1="39.0779" x2="47.2567" y2="39.1033" layer="25"/>
<rectangle x1="43.8785" y1="39.1033" x2="44.2595" y2="39.1287" layer="25"/>
<rectangle x1="46.9011" y1="39.1033" x2="47.2821" y2="39.1287" layer="25"/>
<rectangle x1="43.8531" y1="39.1287" x2="44.2849" y2="39.1541" layer="25"/>
<rectangle x1="46.8757" y1="39.1287" x2="47.3075" y2="39.1541" layer="25"/>
<rectangle x1="43.8277" y1="39.1541" x2="44.3357" y2="39.1795" layer="25"/>
<rectangle x1="46.8249" y1="39.1541" x2="47.3329" y2="39.1795" layer="25"/>
<rectangle x1="43.8023" y1="39.1795" x2="44.3611" y2="39.2049" layer="25"/>
<rectangle x1="46.7995" y1="39.1795" x2="47.3583" y2="39.2049" layer="25"/>
<rectangle x1="43.7769" y1="39.2049" x2="44.4119" y2="39.2303" layer="25"/>
<rectangle x1="44.7929" y1="39.2049" x2="44.8437" y2="39.2303" layer="25"/>
<rectangle x1="46.3169" y1="39.2049" x2="46.3677" y2="39.2303" layer="25"/>
<rectangle x1="46.7487" y1="39.2049" x2="47.3837" y2="39.2303" layer="25"/>
<rectangle x1="43.7515" y1="39.2303" x2="44.4373" y2="39.2557" layer="25"/>
<rectangle x1="44.7421" y1="39.2303" x2="44.8691" y2="39.2557" layer="25"/>
<rectangle x1="46.2915" y1="39.2303" x2="46.4185" y2="39.2557" layer="25"/>
<rectangle x1="46.7233" y1="39.2303" x2="47.4091" y2="39.2557" layer="25"/>
<rectangle x1="43.7261" y1="39.2557" x2="44.4881" y2="39.2811" layer="25"/>
<rectangle x1="44.6913" y1="39.2557" x2="44.8691" y2="39.2811" layer="25"/>
<rectangle x1="46.2915" y1="39.2557" x2="46.4693" y2="39.2811" layer="25"/>
<rectangle x1="46.6725" y1="39.2557" x2="47.4345" y2="39.2811" layer="25"/>
<rectangle x1="43.7007" y1="39.2811" x2="44.5135" y2="39.3065" layer="25"/>
<rectangle x1="44.6405" y1="39.2811" x2="44.8945" y2="39.3065" layer="25"/>
<rectangle x1="46.2661" y1="39.2811" x2="46.5201" y2="39.3065" layer="25"/>
<rectangle x1="46.6471" y1="39.2811" x2="47.4599" y2="39.3065" layer="25"/>
<rectangle x1="43.6753" y1="39.3065" x2="44.5389" y2="39.3319" layer="25"/>
<rectangle x1="44.5897" y1="39.3065" x2="44.8945" y2="39.3319" layer="25"/>
<rectangle x1="46.2661" y1="39.3065" x2="46.5709" y2="39.3319" layer="25"/>
<rectangle x1="46.6217" y1="39.3065" x2="47.4853" y2="39.3319" layer="25"/>
<rectangle x1="43.6499" y1="39.3319" x2="44.8945" y2="39.3573" layer="25"/>
<rectangle x1="46.2661" y1="39.3319" x2="47.5107" y2="39.3573" layer="25"/>
<rectangle x1="43.6245" y1="39.3573" x2="44.9199" y2="39.3827" layer="25"/>
<rectangle x1="46.2407" y1="39.3573" x2="47.5361" y2="39.3827" layer="25"/>
<rectangle x1="43.5991" y1="39.3827" x2="44.9199" y2="39.4081" layer="25"/>
<rectangle x1="46.2407" y1="39.3827" x2="47.5615" y2="39.4081" layer="25"/>
<rectangle x1="43.5737" y1="39.4081" x2="44.9453" y2="39.4335" layer="25"/>
<rectangle x1="46.2153" y1="39.4081" x2="47.5869" y2="39.4335" layer="25"/>
<rectangle x1="43.5483" y1="39.4335" x2="44.9453" y2="39.4589" layer="25"/>
<rectangle x1="46.2153" y1="39.4335" x2="47.6123" y2="39.4589" layer="25"/>
<rectangle x1="43.5483" y1="39.4589" x2="44.9453" y2="39.4843" layer="25"/>
<rectangle x1="46.2153" y1="39.4589" x2="47.6123" y2="39.4843" layer="25"/>
<rectangle x1="43.5737" y1="39.4843" x2="44.9707" y2="39.5097" layer="25"/>
<rectangle x1="46.1899" y1="39.4843" x2="47.5869" y2="39.5097" layer="25"/>
<rectangle x1="43.5737" y1="39.5097" x2="44.9707" y2="39.5351" layer="25"/>
<rectangle x1="46.1899" y1="39.5097" x2="47.5869" y2="39.5351" layer="25"/>
<rectangle x1="43.5991" y1="39.5351" x2="44.9961" y2="39.5605" layer="25"/>
<rectangle x1="46.1645" y1="39.5351" x2="47.5615" y2="39.5605" layer="25"/>
<rectangle x1="43.6245" y1="39.5605" x2="44.9961" y2="39.5859" layer="25"/>
<rectangle x1="46.1645" y1="39.5605" x2="47.5361" y2="39.5859" layer="25"/>
<rectangle x1="43.6245" y1="39.5859" x2="45.0215" y2="39.6113" layer="25"/>
<rectangle x1="46.1391" y1="39.5859" x2="47.5361" y2="39.6113" layer="25"/>
<rectangle x1="43.6499" y1="39.6113" x2="45.0215" y2="39.6367" layer="25"/>
<rectangle x1="46.1391" y1="39.6113" x2="47.5107" y2="39.6367" layer="25"/>
<rectangle x1="43.6753" y1="39.6367" x2="45.0215" y2="39.6621" layer="25"/>
<rectangle x1="46.1391" y1="39.6367" x2="47.4853" y2="39.6621" layer="25"/>
<rectangle x1="43.6753" y1="39.6621" x2="45.0469" y2="39.6875" layer="25"/>
<rectangle x1="46.1137" y1="39.6621" x2="47.4853" y2="39.6875" layer="25"/>
<rectangle x1="43.7007" y1="39.6875" x2="45.0469" y2="39.7129" layer="25"/>
<rectangle x1="46.1137" y1="39.6875" x2="47.4599" y2="39.7129" layer="25"/>
<rectangle x1="43.7261" y1="39.7129" x2="45.0723" y2="39.7383" layer="25"/>
<rectangle x1="46.0883" y1="39.7129" x2="47.4345" y2="39.7383" layer="25"/>
<rectangle x1="43.7261" y1="39.7383" x2="45.0723" y2="39.7637" layer="25"/>
<rectangle x1="46.0883" y1="39.7383" x2="47.4345" y2="39.7637" layer="25"/>
<rectangle x1="43.7515" y1="39.7637" x2="45.0723" y2="39.7891" layer="25"/>
<rectangle x1="46.0883" y1="39.7637" x2="47.4091" y2="39.7891" layer="25"/>
<rectangle x1="43.7769" y1="39.7891" x2="45.0977" y2="39.8145" layer="25"/>
<rectangle x1="46.0629" y1="39.7891" x2="47.3837" y2="39.8145" layer="25"/>
<rectangle x1="43.8023" y1="39.8145" x2="45.0977" y2="39.8399" layer="25"/>
<rectangle x1="46.0629" y1="39.8145" x2="47.3583" y2="39.8399" layer="25"/>
<rectangle x1="43.8023" y1="39.8399" x2="45.1231" y2="39.8653" layer="25"/>
<rectangle x1="46.0375" y1="39.8399" x2="47.3583" y2="39.8653" layer="25"/>
<rectangle x1="43.8277" y1="39.8653" x2="45.1231" y2="39.8907" layer="25"/>
<rectangle x1="46.0375" y1="39.8653" x2="47.3329" y2="39.8907" layer="25"/>
<rectangle x1="43.8277" y1="39.8907" x2="45.1485" y2="39.9161" layer="25"/>
<rectangle x1="46.0121" y1="39.8907" x2="47.3329" y2="39.9161" layer="25"/>
<rectangle x1="43.8531" y1="39.9161" x2="45.1485" y2="39.9415" layer="25"/>
<rectangle x1="46.0121" y1="39.9161" x2="47.3075" y2="39.9415" layer="25"/>
<rectangle x1="43.8785" y1="39.9415" x2="45.1485" y2="39.9669" layer="25"/>
<rectangle x1="46.0121" y1="39.9415" x2="47.2821" y2="39.9669" layer="25"/>
<rectangle x1="43.9039" y1="39.9669" x2="45.1739" y2="39.9923" layer="25"/>
<rectangle x1="45.9867" y1="39.9669" x2="47.2567" y2="39.9923" layer="25"/>
<rectangle x1="43.9039" y1="39.9923" x2="45.1739" y2="40.0177" layer="25"/>
<rectangle x1="45.9867" y1="39.9923" x2="47.2567" y2="40.0177" layer="25"/>
<rectangle x1="43.9039" y1="40.0177" x2="45.1993" y2="40.0431" layer="25"/>
<rectangle x1="45.9613" y1="40.0177" x2="47.2567" y2="40.0431" layer="25"/>
<rectangle x1="43.9039" y1="40.0431" x2="45.1993" y2="40.0685" layer="25"/>
<rectangle x1="45.9613" y1="40.0431" x2="47.2567" y2="40.0685" layer="25"/>
<rectangle x1="43.8785" y1="40.0685" x2="45.1993" y2="40.0939" layer="25"/>
<rectangle x1="45.9613" y1="40.0685" x2="47.2821" y2="40.0939" layer="25"/>
<rectangle x1="43.8785" y1="40.0939" x2="45.2247" y2="40.1193" layer="25"/>
<rectangle x1="45.9359" y1="40.0939" x2="47.2821" y2="40.1193" layer="25"/>
<rectangle x1="43.8531" y1="40.1193" x2="45.2247" y2="40.1447" layer="25"/>
<rectangle x1="45.9359" y1="40.1193" x2="47.3075" y2="40.1447" layer="25"/>
<rectangle x1="43.8531" y1="40.1447" x2="45.2501" y2="40.1701" layer="25"/>
<rectangle x1="45.9105" y1="40.1447" x2="47.3075" y2="40.1701" layer="25"/>
<rectangle x1="43.8531" y1="40.1701" x2="45.2501" y2="40.1955" layer="25"/>
<rectangle x1="45.9105" y1="40.1701" x2="47.3075" y2="40.1955" layer="25"/>
<rectangle x1="43.8277" y1="40.1955" x2="45.2501" y2="40.2209" layer="25"/>
<rectangle x1="45.9105" y1="40.1955" x2="47.3329" y2="40.2209" layer="25"/>
<rectangle x1="43.8277" y1="40.2209" x2="45.2755" y2="40.2463" layer="25"/>
<rectangle x1="45.8851" y1="40.2209" x2="47.3329" y2="40.2463" layer="25"/>
<rectangle x1="43.8023" y1="40.2463" x2="45.2755" y2="40.2717" layer="25"/>
<rectangle x1="45.8851" y1="40.2463" x2="47.3583" y2="40.2717" layer="25"/>
<rectangle x1="43.8023" y1="40.2717" x2="45.3009" y2="40.2971" layer="25"/>
<rectangle x1="45.8597" y1="40.2717" x2="47.3583" y2="40.2971" layer="25"/>
<rectangle x1="43.8023" y1="40.2971" x2="45.3009" y2="40.3225" layer="25"/>
<rectangle x1="45.8597" y1="40.2971" x2="47.3583" y2="40.3225" layer="25"/>
<rectangle x1="43.7769" y1="40.3225" x2="45.3009" y2="40.3479" layer="25"/>
<rectangle x1="45.8597" y1="40.3225" x2="47.3837" y2="40.3479" layer="25"/>
<rectangle x1="43.7769" y1="40.3479" x2="45.2755" y2="40.3733" layer="25"/>
<rectangle x1="45.8851" y1="40.3479" x2="47.3837" y2="40.3733" layer="25"/>
<rectangle x1="43.7515" y1="40.3733" x2="45.2247" y2="40.3987" layer="25"/>
<rectangle x1="45.9359" y1="40.3733" x2="47.4091" y2="40.3987" layer="25"/>
<rectangle x1="43.7515" y1="40.3987" x2="45.1993" y2="40.4241" layer="25"/>
<rectangle x1="45.9613" y1="40.3987" x2="47.4091" y2="40.4241" layer="25"/>
<rectangle x1="43.7515" y1="40.4241" x2="45.1485" y2="40.4495" layer="25"/>
<rectangle x1="46.0121" y1="40.4241" x2="47.4091" y2="40.4495" layer="25"/>
<rectangle x1="43.7261" y1="40.4495" x2="45.1231" y2="40.4749" layer="25"/>
<rectangle x1="46.0375" y1="40.4495" x2="47.4345" y2="40.4749" layer="25"/>
<rectangle x1="43.7261" y1="40.4749" x2="45.0977" y2="40.5003" layer="25"/>
<rectangle x1="46.0629" y1="40.4749" x2="47.4345" y2="40.5003" layer="25"/>
<rectangle x1="43.7007" y1="40.5003" x2="45.0723" y2="40.5257" layer="25"/>
<rectangle x1="46.0883" y1="40.5003" x2="47.4599" y2="40.5257" layer="25"/>
<rectangle x1="43.6753" y1="40.5257" x2="45.0469" y2="40.5511" layer="25"/>
<rectangle x1="46.1137" y1="40.5257" x2="47.4853" y2="40.5511" layer="25"/>
<rectangle x1="43.5483" y1="40.5511" x2="45.0215" y2="40.5765" layer="25"/>
<rectangle x1="46.1391" y1="40.5511" x2="47.6123" y2="40.5765" layer="25"/>
<rectangle x1="43.3959" y1="40.5765" x2="44.9961" y2="40.6019" layer="25"/>
<rectangle x1="46.1645" y1="40.5765" x2="47.7647" y2="40.6019" layer="25"/>
<rectangle x1="43.2689" y1="40.6019" x2="44.9961" y2="40.6273" layer="25"/>
<rectangle x1="46.1645" y1="40.6019" x2="47.8663" y2="40.6273" layer="25"/>
<rectangle x1="43.1419" y1="40.6273" x2="44.9707" y2="40.6527" layer="25"/>
<rectangle x1="46.1899" y1="40.6273" x2="48.0187" y2="40.6527" layer="25"/>
<rectangle x1="43.0403" y1="40.6527" x2="44.9707" y2="40.6781" layer="25"/>
<rectangle x1="46.1899" y1="40.6527" x2="48.1203" y2="40.6781" layer="25"/>
<rectangle x1="43.0403" y1="40.6781" x2="44.9453" y2="40.7035" layer="25"/>
<rectangle x1="46.2153" y1="40.6781" x2="48.1203" y2="40.7035" layer="25"/>
<rectangle x1="43.0403" y1="40.7035" x2="44.9453" y2="40.7289" layer="25"/>
<rectangle x1="46.2153" y1="40.7035" x2="48.1203" y2="40.7289" layer="25"/>
<rectangle x1="43.0403" y1="40.7289" x2="44.9199" y2="40.7543" layer="25"/>
<rectangle x1="46.2407" y1="40.7289" x2="48.1203" y2="40.7543" layer="25"/>
<rectangle x1="43.0403" y1="40.7543" x2="44.9199" y2="40.7797" layer="25"/>
<rectangle x1="46.2407" y1="40.7543" x2="48.1203" y2="40.7797" layer="25"/>
<rectangle x1="43.0403" y1="40.7797" x2="44.8945" y2="40.8051" layer="25"/>
<rectangle x1="46.2661" y1="40.7797" x2="48.1203" y2="40.8051" layer="25"/>
<rectangle x1="43.0403" y1="40.8051" x2="44.8945" y2="40.8305" layer="25"/>
<rectangle x1="46.2661" y1="40.8051" x2="48.1203" y2="40.8305" layer="25"/>
<rectangle x1="43.0403" y1="40.8305" x2="44.8945" y2="40.8559" layer="25"/>
<rectangle x1="46.2661" y1="40.8305" x2="48.1203" y2="40.8559" layer="25"/>
<rectangle x1="43.0403" y1="40.8559" x2="44.8945" y2="40.8813" layer="25"/>
<rectangle x1="46.2661" y1="40.8559" x2="48.1203" y2="40.8813" layer="25"/>
<rectangle x1="43.0403" y1="40.8813" x2="44.8691" y2="40.9067" layer="25"/>
<rectangle x1="46.2915" y1="40.8813" x2="48.1203" y2="40.9067" layer="25"/>
<rectangle x1="43.0403" y1="40.9067" x2="44.8691" y2="40.9321" layer="25"/>
<rectangle x1="46.2915" y1="40.9067" x2="48.1203" y2="40.9321" layer="25"/>
<rectangle x1="43.0403" y1="40.9321" x2="44.8691" y2="40.9575" layer="25"/>
<rectangle x1="46.2915" y1="40.9321" x2="48.1203" y2="40.9575" layer="25"/>
<rectangle x1="43.0403" y1="40.9575" x2="44.8691" y2="40.9829" layer="25"/>
<rectangle x1="46.2915" y1="40.9575" x2="48.1203" y2="40.9829" layer="25"/>
<rectangle x1="43.0403" y1="40.9829" x2="44.8691" y2="41.0083" layer="25"/>
<rectangle x1="46.2915" y1="40.9829" x2="48.1203" y2="41.0083" layer="25"/>
<rectangle x1="43.0403" y1="41.0083" x2="44.8691" y2="41.0337" layer="25"/>
<rectangle x1="46.2915" y1="41.0083" x2="48.1203" y2="41.0337" layer="25"/>
<rectangle x1="43.0403" y1="41.0337" x2="44.8691" y2="41.0591" layer="25"/>
<rectangle x1="46.2915" y1="41.0337" x2="48.1203" y2="41.0591" layer="25"/>
<rectangle x1="43.0403" y1="41.0591" x2="44.8691" y2="41.0845" layer="25"/>
<rectangle x1="46.2915" y1="41.0591" x2="48.1203" y2="41.0845" layer="25"/>
<rectangle x1="43.0403" y1="41.0845" x2="44.8691" y2="41.1099" layer="25"/>
<rectangle x1="46.2915" y1="41.0845" x2="48.1203" y2="41.1099" layer="25"/>
<rectangle x1="43.0403" y1="41.1099" x2="44.8691" y2="41.1353" layer="25"/>
<rectangle x1="46.2915" y1="41.1099" x2="48.1203" y2="41.1353" layer="25"/>
<rectangle x1="43.0403" y1="41.1353" x2="44.8945" y2="41.1607" layer="25"/>
<rectangle x1="46.2661" y1="41.1353" x2="48.1203" y2="41.1607" layer="25"/>
<rectangle x1="43.0403" y1="41.1607" x2="44.8945" y2="41.1861" layer="25"/>
<rectangle x1="46.2661" y1="41.1607" x2="48.1203" y2="41.1861" layer="25"/>
<rectangle x1="43.0403" y1="41.1861" x2="44.8945" y2="41.2115" layer="25"/>
<rectangle x1="46.2661" y1="41.1861" x2="48.1203" y2="41.2115" layer="25"/>
<rectangle x1="43.0403" y1="41.2115" x2="44.9199" y2="41.2369" layer="25"/>
<rectangle x1="46.2407" y1="41.2115" x2="48.1203" y2="41.2369" layer="25"/>
<rectangle x1="43.0403" y1="41.2369" x2="44.9199" y2="41.2623" layer="25"/>
<rectangle x1="46.2407" y1="41.2369" x2="48.1203" y2="41.2623" layer="25"/>
<rectangle x1="43.0403" y1="41.2623" x2="44.9199" y2="41.2877" layer="25"/>
<rectangle x1="46.2407" y1="41.2623" x2="48.1203" y2="41.2877" layer="25"/>
<rectangle x1="43.0403" y1="41.2877" x2="44.9453" y2="41.3131" layer="25"/>
<rectangle x1="46.2153" y1="41.2877" x2="48.1203" y2="41.3131" layer="25"/>
<rectangle x1="43.0403" y1="41.3131" x2="44.9453" y2="41.3385" layer="25"/>
<rectangle x1="46.2153" y1="41.3131" x2="48.1203" y2="41.3385" layer="25"/>
<rectangle x1="43.0403" y1="41.3385" x2="44.9707" y2="41.3639" layer="25"/>
<rectangle x1="46.1899" y1="41.3385" x2="48.1203" y2="41.3639" layer="25"/>
<rectangle x1="43.1419" y1="41.3639" x2="44.9707" y2="41.3893" layer="25"/>
<rectangle x1="46.1899" y1="41.3639" x2="48.0187" y2="41.3893" layer="25"/>
<rectangle x1="43.2689" y1="41.3893" x2="44.9961" y2="41.4147" layer="25"/>
<rectangle x1="46.1645" y1="41.3893" x2="47.8917" y2="41.4147" layer="25"/>
<rectangle x1="43.4213" y1="41.4147" x2="45.0215" y2="41.4401" layer="25"/>
<rectangle x1="46.1391" y1="41.4147" x2="47.7393" y2="41.4401" layer="25"/>
<rectangle x1="43.5483" y1="41.4401" x2="45.0469" y2="41.4655" layer="25"/>
<rectangle x1="46.1137" y1="41.4401" x2="47.6123" y2="41.4655" layer="25"/>
<rectangle x1="43.7007" y1="41.4655" x2="45.0469" y2="41.4909" layer="25"/>
<rectangle x1="46.1137" y1="41.4655" x2="47.4599" y2="41.4909" layer="25"/>
<rectangle x1="43.7261" y1="41.4909" x2="45.0723" y2="41.5163" layer="25"/>
<rectangle x1="46.0883" y1="41.4909" x2="47.4345" y2="41.5163" layer="25"/>
<rectangle x1="43.7261" y1="41.5163" x2="45.0977" y2="41.5417" layer="25"/>
<rectangle x1="46.0629" y1="41.5163" x2="47.4345" y2="41.5417" layer="25"/>
<rectangle x1="43.7515" y1="41.5417" x2="45.1485" y2="41.5671" layer="25"/>
<rectangle x1="46.0121" y1="41.5417" x2="47.4091" y2="41.5671" layer="25"/>
<rectangle x1="43.7515" y1="41.5671" x2="45.1739" y2="41.5925" layer="25"/>
<rectangle x1="45.9867" y1="41.5671" x2="47.4091" y2="41.5925" layer="25"/>
<rectangle x1="43.7769" y1="41.5925" x2="45.1993" y2="41.6179" layer="25"/>
<rectangle x1="45.9613" y1="41.5925" x2="47.3837" y2="41.6179" layer="25"/>
<rectangle x1="43.7769" y1="41.6179" x2="45.2501" y2="41.6433" layer="25"/>
<rectangle x1="45.9105" y1="41.6179" x2="47.3837" y2="41.6433" layer="25"/>
<rectangle x1="43.8023" y1="41.6433" x2="45.3009" y2="41.6687" layer="25"/>
<rectangle x1="45.8597" y1="41.6433" x2="47.3583" y2="41.6687" layer="25"/>
<rectangle x1="43.8023" y1="41.6687" x2="45.3771" y2="41.6941" layer="25"/>
<rectangle x1="45.7835" y1="41.6687" x2="47.3583" y2="41.6941" layer="25"/>
<rectangle x1="43.8023" y1="41.6941" x2="45.4787" y2="41.7195" layer="25"/>
<rectangle x1="45.6819" y1="41.6941" x2="47.3583" y2="41.7195" layer="25"/>
<rectangle x1="43.8277" y1="41.7195" x2="47.3329" y2="41.7449" layer="25"/>
<rectangle x1="43.8277" y1="41.7449" x2="47.3329" y2="41.7703" layer="25"/>
<rectangle x1="43.8531" y1="41.7703" x2="47.3075" y2="41.7957" layer="25"/>
<rectangle x1="43.8531" y1="41.7957" x2="47.3075" y2="41.8211" layer="25"/>
<rectangle x1="43.8785" y1="41.8211" x2="47.2821" y2="41.8465" layer="25"/>
<rectangle x1="43.8785" y1="41.8465" x2="47.2821" y2="41.8719" layer="25"/>
<rectangle x1="43.8785" y1="41.8719" x2="47.2821" y2="41.8973" layer="25"/>
<rectangle x1="43.9039" y1="41.8973" x2="47.2567" y2="41.9227" layer="25"/>
<rectangle x1="43.9039" y1="41.9227" x2="47.2567" y2="41.9481" layer="25"/>
<rectangle x1="43.9293" y1="41.9481" x2="47.2313" y2="41.9735" layer="25"/>
<rectangle x1="43.9293" y1="41.9735" x2="47.2313" y2="41.9989" layer="25"/>
<rectangle x1="43.9039" y1="41.9989" x2="47.2567" y2="42.0243" layer="25"/>
<rectangle x1="43.9039" y1="42.0243" x2="47.2567" y2="42.0497" layer="25"/>
<rectangle x1="43.8785" y1="42.0497" x2="47.2821" y2="42.0751" layer="25"/>
<rectangle x1="43.8531" y1="42.0751" x2="47.3075" y2="42.1005" layer="25"/>
<rectangle x1="43.8277" y1="42.1005" x2="47.3329" y2="42.1259" layer="25"/>
<rectangle x1="43.8277" y1="42.1259" x2="47.3329" y2="42.1513" layer="25"/>
<rectangle x1="43.8023" y1="42.1513" x2="47.3583" y2="42.1767" layer="25"/>
<rectangle x1="43.7769" y1="42.1767" x2="47.3837" y2="42.2021" layer="25"/>
<rectangle x1="43.7769" y1="42.2021" x2="47.3837" y2="42.2275" layer="25"/>
<rectangle x1="43.7515" y1="42.2275" x2="47.4091" y2="42.2529" layer="25"/>
<rectangle x1="43.7261" y1="42.2529" x2="47.4345" y2="42.2783" layer="25"/>
<rectangle x1="43.7261" y1="42.2783" x2="47.4345" y2="42.3037" layer="25"/>
<rectangle x1="43.7007" y1="42.3037" x2="47.4599" y2="42.3291" layer="25"/>
<rectangle x1="43.6753" y1="42.3291" x2="47.4853" y2="42.3545" layer="25"/>
<rectangle x1="43.6753" y1="42.3545" x2="47.4853" y2="42.3799" layer="25"/>
<rectangle x1="43.6499" y1="42.3799" x2="47.5107" y2="42.4053" layer="25"/>
<rectangle x1="43.6245" y1="42.4053" x2="47.5361" y2="42.4307" layer="25"/>
<rectangle x1="43.6245" y1="42.4307" x2="47.5361" y2="42.4561" layer="25"/>
<rectangle x1="43.5991" y1="42.4561" x2="47.5615" y2="42.4815" layer="25"/>
<rectangle x1="43.5737" y1="42.4815" x2="47.5869" y2="42.5069" layer="25"/>
<rectangle x1="43.5737" y1="42.5069" x2="47.5869" y2="42.5323" layer="25"/>
<rectangle x1="43.5483" y1="42.5323" x2="47.6123" y2="42.5577" layer="25"/>
<rectangle x1="43.5483" y1="42.5577" x2="47.6123" y2="42.5831" layer="25"/>
<rectangle x1="43.5737" y1="42.5831" x2="47.5869" y2="42.6085" layer="25"/>
<rectangle x1="43.5991" y1="42.6085" x2="47.5615" y2="42.6339" layer="25"/>
<rectangle x1="43.6245" y1="42.6339" x2="47.5361" y2="42.6593" layer="25"/>
<rectangle x1="43.6499" y1="42.6593" x2="44.5897" y2="42.6847" layer="25"/>
<rectangle x1="44.6659" y1="42.6593" x2="46.4947" y2="42.6847" layer="25"/>
<rectangle x1="46.5709" y1="42.6593" x2="47.5107" y2="42.6847" layer="25"/>
<rectangle x1="43.6753" y1="42.6847" x2="44.5643" y2="42.7101" layer="25"/>
<rectangle x1="44.7167" y1="42.6847" x2="46.4439" y2="42.7101" layer="25"/>
<rectangle x1="46.5963" y1="42.6847" x2="47.4853" y2="42.7101" layer="25"/>
<rectangle x1="43.7007" y1="42.7101" x2="44.5135" y2="42.7355" layer="25"/>
<rectangle x1="44.7929" y1="42.7101" x2="46.3677" y2="42.7355" layer="25"/>
<rectangle x1="46.6471" y1="42.7101" x2="47.4599" y2="42.7355" layer="25"/>
<rectangle x1="43.7261" y1="42.7355" x2="44.4627" y2="42.7609" layer="25"/>
<rectangle x1="44.8437" y1="42.7355" x2="46.3169" y2="42.7609" layer="25"/>
<rectangle x1="46.6979" y1="42.7355" x2="47.4345" y2="42.7609" layer="25"/>
<rectangle x1="43.7515" y1="42.7609" x2="44.4373" y2="42.7863" layer="25"/>
<rectangle x1="44.9199" y1="42.7609" x2="46.2407" y2="42.7863" layer="25"/>
<rectangle x1="46.7233" y1="42.7609" x2="47.4091" y2="42.7863" layer="25"/>
<rectangle x1="43.7769" y1="42.7863" x2="44.4119" y2="42.8117" layer="25"/>
<rectangle x1="44.9707" y1="42.7863" x2="46.1899" y2="42.8117" layer="25"/>
<rectangle x1="46.7487" y1="42.7863" x2="47.3837" y2="42.8117" layer="25"/>
<rectangle x1="43.8023" y1="42.8117" x2="44.3611" y2="42.8371" layer="25"/>
<rectangle x1="45.0469" y1="42.8117" x2="46.1137" y2="42.8371" layer="25"/>
<rectangle x1="46.7995" y1="42.8117" x2="47.3583" y2="42.8371" layer="25"/>
<rectangle x1="43.8277" y1="42.8371" x2="44.3357" y2="42.8625" layer="25"/>
<rectangle x1="45.0977" y1="42.8371" x2="46.0629" y2="42.8625" layer="25"/>
<rectangle x1="46.8249" y1="42.8371" x2="47.3329" y2="42.8625" layer="25"/>
<rectangle x1="43.8531" y1="42.8625" x2="44.2849" y2="42.8879" layer="25"/>
<rectangle x1="45.0977" y1="42.8625" x2="46.0629" y2="42.8879" layer="25"/>
<rectangle x1="46.8757" y1="42.8625" x2="47.3075" y2="42.8879" layer="25"/>
<rectangle x1="43.8785" y1="42.8879" x2="44.2595" y2="42.9133" layer="25"/>
<rectangle x1="45.0977" y1="42.8879" x2="46.0629" y2="42.9133" layer="25"/>
<rectangle x1="46.9011" y1="42.8879" x2="47.2821" y2="42.9133" layer="25"/>
<rectangle x1="43.9039" y1="42.9133" x2="44.2087" y2="42.9387" layer="25"/>
<rectangle x1="45.1231" y1="42.9133" x2="46.0375" y2="42.9387" layer="25"/>
<rectangle x1="46.9519" y1="42.9133" x2="47.2567" y2="42.9387" layer="25"/>
<rectangle x1="43.9293" y1="42.9387" x2="44.1833" y2="42.9641" layer="25"/>
<rectangle x1="45.1231" y1="42.9387" x2="46.0375" y2="42.9641" layer="25"/>
<rectangle x1="46.9773" y1="42.9387" x2="47.2313" y2="42.9641" layer="25"/>
<rectangle x1="43.9547" y1="42.9641" x2="44.1325" y2="42.9895" layer="25"/>
<rectangle x1="45.1231" y1="42.9641" x2="46.0375" y2="42.9895" layer="25"/>
<rectangle x1="47.0281" y1="42.9641" x2="47.2059" y2="42.9895" layer="25"/>
<rectangle x1="43.9801" y1="42.9895" x2="44.1071" y2="43.0149" layer="25"/>
<rectangle x1="45.1231" y1="42.9895" x2="46.0375" y2="43.0149" layer="25"/>
<rectangle x1="47.0535" y1="42.9895" x2="47.1805" y2="43.0149" layer="25"/>
<rectangle x1="44.0055" y1="43.0149" x2="44.0563" y2="43.0403" layer="25"/>
<rectangle x1="45.1231" y1="43.0149" x2="46.0375" y2="43.0403" layer="25"/>
<rectangle x1="47.1043" y1="43.0149" x2="47.1551" y2="43.0403" layer="25"/>
<rectangle x1="45.1485" y1="43.0403" x2="46.0121" y2="43.0657" layer="25"/>
<rectangle x1="45.1485" y1="43.0657" x2="46.0121" y2="43.0911" layer="25"/>
<rectangle x1="45.1485" y1="43.0911" x2="46.0121" y2="43.1165" layer="25"/>
<rectangle x1="45.1485" y1="43.1165" x2="46.0121" y2="43.1419" layer="25"/>
<rectangle x1="45.1485" y1="43.1419" x2="46.0121" y2="43.1673" layer="25"/>
<rectangle x1="45.1739" y1="43.1673" x2="45.9867" y2="43.1927" layer="25"/>
<rectangle x1="45.1739" y1="43.1927" x2="45.9867" y2="43.2181" layer="25"/>
<rectangle x1="45.1739" y1="43.2181" x2="45.9867" y2="43.2435" layer="25"/>
<rectangle x1="45.1739" y1="43.2435" x2="45.9867" y2="43.2689" layer="25"/>
<rectangle x1="45.1739" y1="43.2689" x2="45.9867" y2="43.2943" layer="25"/>
<rectangle x1="45.1739" y1="43.2943" x2="45.9867" y2="43.3197" layer="25"/>
<rectangle x1="45.1993" y1="43.3197" x2="45.9613" y2="43.3451" layer="25"/>
<rectangle x1="45.1993" y1="43.3451" x2="45.9613" y2="43.3705" layer="25"/>
<rectangle x1="45.1993" y1="43.3705" x2="45.9613" y2="43.3959" layer="25"/>
<rectangle x1="45.1993" y1="43.3959" x2="45.9613" y2="43.4213" layer="25"/>
<rectangle x1="45.1993" y1="43.4213" x2="45.9613" y2="43.4467" layer="25"/>
<rectangle x1="45.2247" y1="43.4467" x2="45.9359" y2="43.4721" layer="25"/>
<rectangle x1="45.2247" y1="43.4721" x2="45.9359" y2="43.4975" layer="25"/>
<rectangle x1="45.2247" y1="43.4975" x2="45.9359" y2="43.5229" layer="25"/>
<rectangle x1="45.2247" y1="43.5229" x2="45.9359" y2="43.5483" layer="25"/>
<text x="8.382" y="12.319" size="1.27" layer="25" font="vector" rot="R90" align="center-left">PARTICLE
CORE / PHOTON</text>
</plain>
<libraries>
<library name="pinhead">
<description>&lt;b&gt;Pin Header Connectors&lt;/b&gt;&lt;p&gt;
&lt;author&gt;Created by librarian@cadsoft.de&lt;/author&gt;</description>
<packages>
<package name="2X08">
<description>&lt;b&gt;PIN HEADER&lt;/b&gt;</description>
<wire x1="-10.16" y1="-1.905" x2="-9.525" y2="-2.54" width="0.1524" layer="21"/>
<wire x1="-8.255" y1="-2.54" x2="-7.62" y2="-1.905" width="0.1524" layer="21"/>
<wire x1="-7.62" y1="-1.905" x2="-6.985" y2="-2.54" width="0.1524" layer="21"/>
<wire x1="-5.715" y1="-2.54" x2="-5.08" y2="-1.905" width="0.1524" layer="21"/>
<wire x1="-5.08" y1="-1.905" x2="-4.445" y2="-2.54" width="0.1524" layer="21"/>
<wire x1="-3.175" y1="-2.54" x2="-2.54" y2="-1.905" width="0.1524" layer="21"/>
<wire x1="-2.54" y1="-1.905" x2="-1.905" y2="-2.54" width="0.1524" layer="21"/>
<wire x1="-0.635" y1="-2.54" x2="0" y2="-1.905" width="0.1524" layer="21"/>
<wire x1="0" y1="-1.905" x2="0.635" y2="-2.54" width="0.1524" layer="21"/>
<wire x1="1.905" y1="-2.54" x2="2.54" y2="-1.905" width="0.1524" layer="21"/>
<wire x1="2.54" y1="-1.905" x2="3.175" y2="-2.54" width="0.1524" layer="21"/>
<wire x1="4.445" y1="-2.54" x2="5.08" y2="-1.905" width="0.1524" layer="21"/>
<wire x1="-10.16" y1="-1.905" x2="-10.16" y2="1.905" width="0.1524" layer="21"/>
<wire x1="-10.16" y1="1.905" x2="-9.525" y2="2.54" width="0.1524" layer="21"/>
<wire x1="-9.525" y1="2.54" x2="-8.255" y2="2.54" width="0.1524" layer="21"/>
<wire x1="-8.255" y1="2.54" x2="-7.62" y2="1.905" width="0.1524" layer="21"/>
<wire x1="-7.62" y1="1.905" x2="-6.985" y2="2.54" width="0.1524" layer="21"/>
<wire x1="-6.985" y1="2.54" x2="-5.715" y2="2.54" width="0.1524" layer="21"/>
<wire x1="-5.715" y1="2.54" x2="-5.08" y2="1.905" width="0.1524" layer="21"/>
<wire x1="-5.08" y1="1.905" x2="-4.445" y2="2.54" width="0.1524" layer="21"/>
<wire x1="-4.445" y1="2.54" x2="-3.175" y2="2.54" width="0.1524" layer="21"/>
<wire x1="-3.175" y1="2.54" x2="-2.54" y2="1.905" width="0.1524" layer="21"/>
<wire x1="-2.54" y1="1.905" x2="-1.905" y2="2.54" width="0.1524" layer="21"/>
<wire x1="-1.905" y1="2.54" x2="-0.635" y2="2.54" width="0.1524" layer="21"/>
<wire x1="-0.635" y1="2.54" x2="0" y2="1.905" width="0.1524" layer="21"/>
<wire x1="0" y1="1.905" x2="0.635" y2="2.54" width="0.1524" layer="21"/>
<wire x1="0.635" y1="2.54" x2="1.905" y2="2.54" width="0.1524" layer="21"/>
<wire x1="1.905" y1="2.54" x2="2.54" y2="1.905" width="0.1524" layer="21"/>
<wire x1="2.54" y1="1.905" x2="3.175" y2="2.54" width="0.1524" layer="21"/>
<wire x1="3.175" y1="2.54" x2="4.445" y2="2.54" width="0.1524" layer="21"/>
<wire x1="4.445" y1="2.54" x2="5.08" y2="1.905" width="0.1524" layer="21"/>
<wire x1="5.08" y1="1.905" x2="5.715" y2="2.54" width="0.1524" layer="21"/>
<wire x1="5.715" y1="2.54" x2="6.985" y2="2.54" width="0.1524" layer="21"/>
<wire x1="6.985" y1="2.54" x2="7.62" y2="1.905" width="0.1524" layer="21"/>
<wire x1="7.62" y1="-1.905" x2="6.985" y2="-2.54" width="0.1524" layer="21"/>
<wire x1="5.08" y1="-1.905" x2="5.715" y2="-2.54" width="0.1524" layer="21"/>
<wire x1="-7.62" y1="1.905" x2="-7.62" y2="-1.905" width="0.1524" layer="21"/>
<wire x1="-5.08" y1="1.905" x2="-5.08" y2="-1.905" width="0.1524" layer="21"/>
<wire x1="-2.54" y1="1.905" x2="-2.54" y2="-1.905" width="0.1524" layer="21"/>
<wire x1="0" y1="1.905" x2="0" y2="-1.905" width="0.1524" layer="21"/>
<wire x1="2.54" y1="1.905" x2="2.54" y2="-1.905" width="0.1524" layer="21"/>
<wire x1="5.08" y1="1.905" x2="5.08" y2="-1.905" width="0.1524" layer="21"/>
<wire x1="7.62" y1="1.905" x2="7.62" y2="-1.905" width="0.1524" layer="21"/>
<wire x1="5.715" y1="-2.54" x2="6.985" y2="-2.54" width="0.1524" layer="21"/>
<wire x1="3.175" y1="-2.54" x2="4.445" y2="-2.54" width="0.1524" layer="21"/>
<wire x1="0.635" y1="-2.54" x2="1.905" y2="-2.54" width="0.1524" layer="21"/>
<wire x1="-1.905" y1="-2.54" x2="-0.635" y2="-2.54" width="0.1524" layer="21"/>
<wire x1="-4.445" y1="-2.54" x2="-3.175" y2="-2.54" width="0.1524" layer="21"/>
<wire x1="-6.985" y1="-2.54" x2="-5.715" y2="-2.54" width="0.1524" layer="21"/>
<wire x1="-9.525" y1="-2.54" x2="-8.255" y2="-2.54" width="0.1524" layer="21"/>
<wire x1="7.62" y1="1.905" x2="8.255" y2="2.54" width="0.1524" layer="21"/>
<wire x1="8.255" y1="2.54" x2="9.525" y2="2.54" width="0.1524" layer="21"/>
<wire x1="9.525" y1="2.54" x2="10.16" y2="1.905" width="0.1524" layer="21"/>
<wire x1="10.16" y1="-1.905" x2="9.525" y2="-2.54" width="0.1524" layer="21"/>
<wire x1="7.62" y1="-1.905" x2="8.255" y2="-2.54" width="0.1524" layer="21"/>
<wire x1="10.16" y1="1.905" x2="10.16" y2="-1.905" width="0.1524" layer="21"/>
<wire x1="8.255" y1="-2.54" x2="9.525" y2="-2.54" width="0.1524" layer="21"/>
<pad name="1" x="-8.89" y="-1.27" drill="1.016" shape="octagon"/>
<pad name="2" x="-8.89" y="1.27" drill="1.016" shape="octagon"/>
<pad name="3" x="-6.35" y="-1.27" drill="1.016" shape="octagon"/>
<pad name="4" x="-6.35" y="1.27" drill="1.016" shape="octagon"/>
<pad name="5" x="-3.81" y="-1.27" drill="1.016" shape="octagon"/>
<pad name="6" x="-3.81" y="1.27" drill="1.016" shape="octagon"/>
<pad name="7" x="-1.27" y="-1.27" drill="1.016" shape="octagon"/>
<pad name="8" x="-1.27" y="1.27" drill="1.016" shape="octagon"/>
<pad name="9" x="1.27" y="-1.27" drill="1.016" shape="octagon"/>
<pad name="10" x="1.27" y="1.27" drill="1.016" shape="octagon"/>
<pad name="11" x="3.81" y="-1.27" drill="1.016" shape="octagon"/>
<pad name="12" x="3.81" y="1.27" drill="1.016" shape="octagon"/>
<pad name="13" x="6.35" y="-1.27" drill="1.016" shape="octagon"/>
<pad name="14" x="6.35" y="1.27" drill="1.016" shape="octagon"/>
<pad name="15" x="8.89" y="-1.27" drill="1.016" shape="octagon"/>
<pad name="16" x="8.89" y="1.27" drill="1.016" shape="octagon"/>
<text x="-10.16" y="3.175" size="1.27" layer="25" ratio="10">&gt;NAME</text>
<text x="-10.16" y="-4.445" size="1.27" layer="27">&gt;VALUE</text>
<rectangle x1="-9.144" y1="-1.524" x2="-8.636" y2="-1.016" layer="51"/>
<rectangle x1="-9.144" y1="1.016" x2="-8.636" y2="1.524" layer="51"/>
<rectangle x1="-6.604" y1="1.016" x2="-6.096" y2="1.524" layer="51"/>
<rectangle x1="-6.604" y1="-1.524" x2="-6.096" y2="-1.016" layer="51"/>
<rectangle x1="-4.064" y1="1.016" x2="-3.556" y2="1.524" layer="51"/>
<rectangle x1="-4.064" y1="-1.524" x2="-3.556" y2="-1.016" layer="51"/>
<rectangle x1="-1.524" y1="1.016" x2="-1.016" y2="1.524" layer="51"/>
<rectangle x1="1.016" y1="1.016" x2="1.524" y2="1.524" layer="51"/>
<rectangle x1="3.556" y1="1.016" x2="4.064" y2="1.524" layer="51"/>
<rectangle x1="-1.524" y1="-1.524" x2="-1.016" y2="-1.016" layer="51"/>
<rectangle x1="1.016" y1="-1.524" x2="1.524" y2="-1.016" layer="51"/>
<rectangle x1="3.556" y1="-1.524" x2="4.064" y2="-1.016" layer="51"/>
<rectangle x1="6.096" y1="1.016" x2="6.604" y2="1.524" layer="51"/>
<rectangle x1="6.096" y1="-1.524" x2="6.604" y2="-1.016" layer="51"/>
<rectangle x1="8.636" y1="1.016" x2="9.144" y2="1.524" layer="51"/>
<rectangle x1="8.636" y1="-1.524" x2="9.144" y2="-1.016" layer="51"/>
</package>
</packages>
</library>
<library name="Spark">
<packages>
<package name="SPARK_CORE">
<pad name="1" x="-8.89" y="13.97" drill="1.016" diameter="1.8796"/>
<pad name="2" x="-8.89" y="11.43" drill="1.016" diameter="1.8796"/>
<pad name="3" x="-8.89" y="8.89" drill="1.016" diameter="1.8796"/>
<pad name="4" x="-8.89" y="6.35" drill="1.016" diameter="1.8796"/>
<pad name="5" x="-8.89" y="3.81" drill="1.016" diameter="1.8796"/>
<pad name="6" x="-8.89" y="1.27" drill="1.016" diameter="1.8796"/>
<pad name="7" x="-8.89" y="-1.27" drill="1.016" diameter="1.8796"/>
<pad name="8" x="-8.89" y="-3.81" drill="1.016" diameter="1.8796"/>
<pad name="9" x="-8.89" y="-6.35" drill="1.016" diameter="1.8796"/>
<pad name="10" x="-8.89" y="-8.89" drill="1.016" diameter="1.8796"/>
<pad name="11" x="-8.89" y="-11.43" drill="1.016" diameter="1.8796"/>
<pad name="12" x="-8.89" y="-13.97" drill="1.016" diameter="1.8796"/>
<rectangle x1="-9.144" y1="-1.524" x2="-8.636" y2="-1.016" layer="51" rot="R270"/>
<rectangle x1="-9.144" y1="1.016" x2="-8.636" y2="1.524" layer="51" rot="R270"/>
<rectangle x1="-9.144" y1="3.556" x2="-8.636" y2="4.064" layer="51" rot="R270"/>
<rectangle x1="-9.144" y1="6.096" x2="-8.636" y2="6.604" layer="51" rot="R270"/>
<rectangle x1="-9.144" y1="8.636" x2="-8.636" y2="9.144" layer="51" rot="R270"/>
<rectangle x1="-9.144" y1="11.176" x2="-8.636" y2="11.684" layer="51" rot="R270"/>
<rectangle x1="-9.144" y1="13.716" x2="-8.636" y2="14.224" layer="51" rot="R270"/>
<rectangle x1="-9.144" y1="-4.064" x2="-8.636" y2="-3.556" layer="51" rot="R270"/>
<rectangle x1="-9.144" y1="-6.604" x2="-8.636" y2="-6.096" layer="51" rot="R270"/>
<rectangle x1="-9.144" y1="-9.144" x2="-8.636" y2="-8.636" layer="51" rot="R270"/>
<rectangle x1="-9.144" y1="-11.684" x2="-8.636" y2="-11.176" layer="51" rot="R270"/>
<rectangle x1="-9.144" y1="-14.224" x2="-8.636" y2="-13.716" layer="51" rot="R270"/>
<pad name="13" x="8.89" y="-13.97" drill="1.016" diameter="1.8796" rot="R180"/>
<pad name="14" x="8.89" y="-11.43" drill="1.016" diameter="1.8796" rot="R180"/>
<pad name="15" x="8.89" y="-8.89" drill="1.016" diameter="1.8796" rot="R180"/>
<pad name="16" x="8.89" y="-6.35" drill="1.016" diameter="1.8796" rot="R180"/>
<pad name="17" x="8.89" y="-3.81" drill="1.016" diameter="1.8796" rot="R180"/>
<pad name="18" x="8.89" y="-1.27" drill="1.016" diameter="1.8796" rot="R180"/>
<pad name="19" x="8.89" y="1.27" drill="1.016" diameter="1.8796" rot="R180"/>
<pad name="20" x="8.89" y="3.81" drill="1.016" diameter="1.8796" rot="R180"/>
<pad name="21" x="8.89" y="6.35" drill="1.016" diameter="1.8796" rot="R180"/>
<pad name="22" x="8.89" y="8.89" drill="1.016" diameter="1.8796" rot="R180"/>
<pad name="23" x="8.89" y="11.43" drill="1.016" diameter="1.8796" rot="R180"/>
<pad name="24" x="8.89" y="13.97" drill="1.016" diameter="1.8796" rot="R180"/>
<text x="-1.27" y="3.175" size="1.27" layer="27" rot="R270">&gt;VALUE</text>
<rectangle x1="8.636" y1="1.016" x2="9.144" y2="1.524" layer="51" rot="R90"/>
<rectangle x1="8.636" y1="-1.524" x2="9.144" y2="-1.016" layer="51" rot="R90"/>
<rectangle x1="8.636" y1="-4.064" x2="9.144" y2="-3.556" layer="51" rot="R90"/>
<rectangle x1="8.636" y1="-6.604" x2="9.144" y2="-6.096" layer="51" rot="R90"/>
<rectangle x1="8.636" y1="-9.144" x2="9.144" y2="-8.636" layer="51" rot="R90"/>
<rectangle x1="8.636" y1="-11.684" x2="9.144" y2="-11.176" layer="51" rot="R90"/>
<rectangle x1="8.636" y1="-14.224" x2="9.144" y2="-13.716" layer="51" rot="R90"/>
<rectangle x1="8.636" y1="3.556" x2="9.144" y2="4.064" layer="51" rot="R90"/>
<rectangle x1="8.636" y1="6.096" x2="9.144" y2="6.604" layer="51" rot="R90"/>
<rectangle x1="8.636" y1="8.636" x2="9.144" y2="9.144" layer="51" rot="R90"/>
<rectangle x1="8.636" y1="11.176" x2="9.144" y2="11.684" layer="51" rot="R90"/>
<rectangle x1="8.636" y1="13.716" x2="9.144" y2="14.224" layer="51" rot="R90"/>
<wire x1="10.16" y1="15.24" x2="10.16" y2="17.78" width="0.3048" layer="21"/>
<wire x1="-10.16" y1="17.78" x2="-10.16" y2="15.24" width="0.3048" layer="21"/>
<wire x1="-3.81" y1="19.05" x2="-3.81" y2="17.78" width="0.3048" layer="21"/>
<wire x1="3.81" y1="17.78" x2="3.81" y2="19.05" width="0.3048" layer="21"/>
<wire x1="3.81" y1="19.05" x2="-3.81" y2="19.05" width="0.3048" layer="21"/>
<wire x1="-10.16" y1="17.78" x2="-3.81" y2="17.78" width="0.3048" layer="21"/>
<wire x1="3.81" y1="17.78" x2="10.16" y2="17.78" width="0.3048" layer="21"/>
<wire x1="-3.81" y1="17.78" x2="-3.81" y2="15.24" width="0.3048" layer="21"/>
<wire x1="-3.81" y1="15.24" x2="3.81" y2="15.24" width="0.3048" layer="21"/>
<wire x1="3.81" y1="15.24" x2="3.81" y2="17.78" width="0.3048" layer="21"/>
<wire x1="-10.16" y1="-15.24" x2="-7.62" y2="-17.78" width="0.3048" layer="21"/>
<wire x1="-7.62" y1="-17.78" x2="7.62" y2="-17.78" width="0.3048" layer="21"/>
<wire x1="7.62" y1="-17.78" x2="10.16" y2="-15.24" width="0.3048" layer="21"/>
<wire x1="-10.16" y1="15.24" x2="-10.16" y2="-15.24" width="0.2032" layer="21"/>
<wire x1="-10.16" y1="-15.24" x2="-7.62" y2="-15.24" width="0.2032" layer="21"/>
<wire x1="-7.62" y1="-15.24" x2="-7.62" y2="15.24" width="0.2032" layer="21"/>
<wire x1="-7.62" y1="15.24" x2="-10.16" y2="15.24" width="0.2032" layer="21"/>
<wire x1="10.16" y1="15.24" x2="10.16" y2="-15.24" width="0.2032" layer="21"/>
<wire x1="10.16" y1="-15.24" x2="7.62" y2="-15.24" width="0.2032" layer="21"/>
<wire x1="7.62" y1="-15.24" x2="7.62" y2="15.24" width="0.2032" layer="21"/>
<wire x1="7.62" y1="15.24" x2="10.16" y2="15.24" width="0.2032" layer="21"/>
</package>
<package name="POWER_JACK_PTH_LOCK">
<wire x1="4.3476" y1="14.2588" x2="2.4" y2="14.2588" width="0.2032" layer="21"/>
<wire x1="-4.3476" y1="3.2794" x2="-4.3476" y2="0.1" width="0.2032" layer="51"/>
<wire x1="4.3476" y1="0.1" x2="4.3476" y2="3.2794" width="0.2032" layer="51"/>
<wire x1="4.3476" y1="0.1" x2="-4.3476" y2="0.1" width="0.2032" layer="51"/>
<wire x1="4.3476" y1="3.254" x2="4.3476" y2="8.3" width="0.2032" layer="21"/>
<wire x1="4.3476" y1="14.2588" x2="4.3476" y2="13" width="0.2032" layer="21"/>
<wire x1="-4.3476" y1="3.254" x2="-4.3476" y2="14.2588" width="0.2032" layer="21"/>
<wire x1="-4.3476" y1="14.2588" x2="-2.4" y2="14.2588" width="0.2032" layer="21"/>
<wire x1="-4.3476" y1="3.254" x2="4.3476" y2="3.254" width="0.2032" layer="21"/>
<pad name="PWR" x="0" y="13.8778" drill="3.2" diameter="4.1148"/>
<pad name="GND" x="0.0254" y="6.557" drill="2.9972" diameter="4.1148"/>
<pad name="GNDBREAK" x="3.7616" y="10.7" drill="2.9972" diameter="4.1148" rot="R90"/>
<text x="-3.81" y="3.81" size="0.4064" layer="27">&gt;VALUE</text>
<rectangle x1="-0.2159" y1="12.1793" x2="0.2413" y2="15.1003" layer="51" rot="R90"/>
<rectangle x1="-0.1397" y1="6.3119" x2="0.1397" y2="8.7503" layer="51" rot="R90"/>
<rectangle x1="4.4704" y1="9.4742" x2="4.7498" y2="11.9126" layer="51" rot="R180"/>
</package>
</packages>
</library>
<library name="SparkFun-Resistors">
<description>&lt;h3&gt;SparkFun Electronics' preferred foot prints&lt;/h3&gt;
In this library you'll find resistors, capacitors, inductors, test points, jumper pads, etc.&lt;br&gt;&lt;br&gt;
We've spent an enormous amount of time creating and checking these footprints and parts, but it is the end user's responsibility to ensure correctness and suitablity for a given componet or application. If you enjoy using this library, please buy one of our products at www.sparkfun.com.
&lt;br&gt;&lt;br&gt;
&lt;b&gt;Licensing:&lt;/b&gt; Creative Commons ShareAlike 4.0 International - https://creativecommons.org/licenses/by-sa/4.0/ 
&lt;br&gt;&lt;br&gt;
You are welcome to use this library for commercial purposes. For attribution, we ask that when you begin to sell your device using our footprint, you email us with a link to the product being sold. We want bragging rights that we helped (in a very small part) to create your 8th world wonder. We would like the opportunity to feature your device on our homepage.</description>
<packages>
<package name="AXIAL-0.4">
<description>1/4W Resistor, 0.4" wide&lt;p&gt;

Yageo CFR series &lt;a href="http://www.yageo.com/pdf/yageo/Leaded-R_CFR_2008.pdf"&gt;http://www.yageo.com/pdf/yageo/Leaded-R_CFR_2008.pdf&lt;/a&gt;</description>
<wire x1="-3.15" y1="-1.2" x2="-3.15" y2="1.2" width="0.2032" layer="21"/>
<wire x1="-3.15" y1="1.2" x2="3.15" y2="1.2" width="0.2032" layer="21"/>
<wire x1="3.15" y1="1.2" x2="3.15" y2="-1.2" width="0.2032" layer="21"/>
<wire x1="3.15" y1="-1.2" x2="-3.15" y2="-1.2" width="0.2032" layer="21"/>
<pad name="P$1" x="-5.08" y="0" drill="0.9" diameter="1.8796"/>
<pad name="P$2" x="5.08" y="0" drill="0.9" diameter="1.8796"/>
<text x="-3.175" y="1.905" size="0.8128" layer="25" font="vector" ratio="15">&gt;Name</text>
<text x="-2.286" y="-0.381" size="0.8128" layer="21" font="vector" ratio="15">&gt;Value</text>
</package>
</packages>
</library>
<library name="SparkFun-Capacitors">
<description>&lt;h3&gt;SparkFun Electronics' preferred foot prints&lt;/h3&gt;
In this library you'll find resistors, capacitors, inductors, test points, jumper pads, etc.&lt;br&gt;&lt;br&gt;
We've spent an enormous amount of time creating and checking these footprints and parts, but it is the end user's responsibility to ensure correctness and suitablity for a given componet or application. If you enjoy using this library, please buy one of our products at www.sparkfun.com.
&lt;br&gt;&lt;br&gt;
&lt;b&gt;Licensing:&lt;/b&gt; Creative Commons ShareAlike 4.0 International - https://creativecommons.org/licenses/by-sa/4.0/ 
&lt;br&gt;&lt;br&gt;
You are welcome to use this library for commercial purposes. For attribution, we ask that when you begin to sell your device using our footprint, you email us with a link to the product being sold. We want bragging rights that we helped (in a very small part) to create your 8th world wonder. We would like the opportunity to feature your device on our homepage.</description>
<packages>
<package name="CPOL-RADIAL-10UF-25V">
<wire x1="-0.762" y1="1.397" x2="-1.778" y2="1.397" width="0.2032" layer="21"/>
<circle x="0" y="0" radius="2.5" width="0.2032" layer="21"/>
<pad name="1" x="1.27" y="0" drill="0.7" diameter="1.651" shape="square"/>
<pad name="2" x="-1.27" y="0" drill="0.7" diameter="1.651"/>
<text x="-0.889" y="1.524" size="0.4064" layer="25">&gt;Name</text>
<text x="-1.905" y="-3.683" size="0.8128" layer="27">&gt;Value</text>
</package>
</packages>
</library>
<library name="RHT03_DHT-22_AM2302">
<description>&lt;h1&gt;RHT03 / DHT-22 / AM2302 library&lt;/h1&gt;
&lt;p&gt;
Library with devices (schematic symbol and packages) for the RHT03 / DHT-22 / AM2302 digital relative humidity and tempearture sensor.&lt;br /&gt;
Warning: Package does not include tKeepout areas so that the part may optionally be placed on a riser with components underneath.  Please keep the package outline and bent-pin space in mind.
&lt;/p&gt;</description>
<packages>
<package name="RHT03_DHT-22/RA">
<description>&lt;h1&gt;RHT03 / DHT-22 - RIGHT ANGLE&lt;/h1&gt;
&lt;p&gt;
Right angle package for the RHT03 / DHT-22 relative humidity and temperature sensor.
&lt;/p&gt;</description>
<pad name="VDD" x="-3.81" y="0" drill="0.8" shape="octagon"/>
<pad name="DATA" x="-1.27" y="0" drill="0.8"/>
<pad name="NULL" x="1.27" y="0" drill="0.8"/>
<pad name="GND" x="3.81" y="0" drill="0.8"/>
<wire x1="-7.55" y1="2.5" x2="7.55" y2="2.5" width="0.127" layer="21"/>
<text x="-5.08" y="5.08" size="1.27" layer="21" font="vector" rot="R90">&gt;NAME</text>
<wire x1="-7.55" y1="2.5" x2="-7.55" y2="22.5" width="0.127" layer="21"/>
<wire x1="7.55" y1="2.5" x2="7.55" y2="22.5" width="0.127" layer="21"/>
<wire x1="-7.55" y1="22.5" x2="7.55" y2="22.5" width="0.127" layer="21"/>
<wire x1="-5.25" y1="27.1" x2="5.25" y2="27.1" width="0.127" layer="21"/>
<wire x1="7.55" y1="22.5" x2="5.25" y2="27.1" width="0.127" layer="21"/>
<wire x1="-7.55" y1="22.5" x2="-5.25" y2="27.1" width="0.127" layer="21"/>
<hole x="0" y="24.5" drill="3.25"/>
<wire x1="-3.81" y1="1.27" x2="-3.81" y2="2.54" width="0.127" layer="21"/>
<wire x1="-1.27" y1="1.27" x2="-1.27" y2="2.54" width="0.127" layer="21"/>
<wire x1="1.27" y1="1.27" x2="1.27" y2="2.54" width="0.127" layer="21"/>
<wire x1="3.81" y1="1.27" x2="3.81" y2="2.54" width="0.127" layer="21"/>
<text x="0" y="12.5" size="1.27" layer="21" font="vector" rot="R90" align="center">&gt;VALUE</text>
</package>
</packages>
</library>
<library name="adafruit">
<packages>
<package name="PNA460XM">
<wire x1="-3.81" y1="-1.27" x2="-2.54" y2="-1.27" width="0.127" layer="21"/>
<wire x1="-2.54" y1="-1.27" x2="2.54" y2="-1.27" width="0.4064" layer="21"/>
<wire x1="2.54" y1="-1.27" x2="3.81" y2="-1.27" width="0.127" layer="21"/>
<wire x1="3.81" y1="-1.27" x2="3.81" y2="1.27" width="0.127" layer="21"/>
<wire x1="3.81" y1="1.27" x2="-3.81" y2="1.27" width="0.127" layer="21"/>
<wire x1="-3.81" y1="1.27" x2="-3.81" y2="-1.27" width="0.127" layer="21"/>
<wire x1="2.54" y1="-1.27" x2="-2.54" y2="-1.27" width="0.4064" layer="21" curve="-112.624029"/>
<pad name="1" x="-2.54" y="0" drill="1.016" diameter="1.9304" shape="square" rot="R90"/>
<pad name="2" x="0" y="0" drill="1.016" diameter="1.9304" rot="R90"/>
<pad name="3" x="2.54" y="0" drill="1.016" diameter="1.9304" rot="R90"/>
<text x="-3.8862" y="1.8288" size="1.27" layer="25" ratio="10">&gt;NAME</text>
<rectangle x1="2.286" y1="-0.254" x2="2.794" y2="0.254" layer="51"/>
<rectangle x1="-0.254" y1="-0.254" x2="0.254" y2="0.254" layer="51"/>
<rectangle x1="-2.794" y1="-0.254" x2="-2.286" y2="0.254" layer="51"/>
</package>
</packages>
</library>
</libraries>
<attributes>
</attributes>
<variantdefs>
</variantdefs>
<classes>
<class number="0" name="default" width="0" drill="0">
</class>
</classes>
<designrules name="EagleRules">
<description language="de">&lt;b&gt;EAGLE Design Rules&lt;/b&gt;
&lt;p&gt;
Die Standard-Design-Rules sind so gewählt, dass sie für 
die meisten Anwendungen passen. Sollte ihre Platine 
besondere Anforderungen haben, treffen Sie die erforderlichen
Einstellungen hier und speichern die Design Rules unter 
einem neuen Namen ab.</description>
<description language="en">&lt;b&gt;EAGLE Design Rules&lt;/b&gt;
&lt;p&gt;
The default Design Rules have been set to cover
a wide range of applications. Your particular design
may have different requirements, so please make the
necessary adjustments and save your customized
design rules under a new name.</description>
<description language="zh">&lt;b&gt;NOA-Labs EAGLE Design Rules&lt;/b&gt;
</description>
<param name="layerSetup" value="(1*16)"/>
<param name="mtCopper" value="0.035mm 0.035mm 0.035mm 0.035mm 0.035mm 0.035mm 0.035mm 0.035mm 0.035mm 0.035mm 0.035mm 0.035mm 0.035mm 0.035mm 0.035mm 0.035mm"/>
<param name="mtIsolate" value="1.5mm 0.15mm 0.2mm 0.15mm 0.2mm 0.15mm 0.2mm 0.15mm 0.2mm 0.15mm 0.2mm 0.15mm 0.2mm 0.15mm 0.2mm"/>
<param name="mdWireWire" value="7mil"/>
<param name="mdWirePad" value="7mil"/>
<param name="mdWireVia" value="7mil"/>
<param name="mdPadPad" value="7mil"/>
<param name="mdPadVia" value="7mil"/>
<param name="mdViaVia" value="7mil"/>
<param name="mdSmdPad" value="0mil"/>
<param name="mdSmdVia" value="0mil"/>
<param name="mdSmdSmd" value="0mil"/>
<param name="mdViaViaSameLayer" value="8mil"/>
<param name="mnLayersViaInSmd" value="2"/>
<param name="mdCopperDimension" value="20mil"/>
<param name="mdDrill" value="10mil"/>
<param name="mdSmdStop" value="0mil"/>
<param name="msWidth" value="7mil"/>
<param name="msDrill" value="12mil"/>
<param name="msMicroVia" value="12mil"/>
<param name="msBlindViaRatio" value="0.5"/>
<param name="rvPadTop" value="0.25"/>
<param name="rvPadInner" value="0.25"/>
<param name="rvPadBottom" value="0.25"/>
<param name="rvViaOuter" value="0.25"/>
<param name="rvViaInner" value="0.25"/>
<param name="rvMicroViaOuter" value="0.25"/>
<param name="rvMicroViaInner" value="0.25"/>
<param name="rlMinPadTop" value="10mil"/>
<param name="rlMaxPadTop" value="20mil"/>
<param name="rlMinPadInner" value="10mil"/>
<param name="rlMaxPadInner" value="20mil"/>
<param name="rlMinPadBottom" value="10mil"/>
<param name="rlMaxPadBottom" value="20mil"/>
<param name="rlMinViaOuter" value="6mil"/>
<param name="rlMaxViaOuter" value="20mil"/>
<param name="rlMinViaInner" value="6mil"/>
<param name="rlMaxViaInner" value="20mil"/>
<param name="rlMinMicroViaOuter" value="4mil"/>
<param name="rlMaxMicroViaOuter" value="20mil"/>
<param name="rlMinMicroViaInner" value="4mil"/>
<param name="rlMaxMicroViaInner" value="20mil"/>
<param name="psTop" value="-1"/>
<param name="psBottom" value="-1"/>
<param name="psFirst" value="0"/>
<param name="psElongationLong" value="100"/>
<param name="psElongationOffset" value="100"/>
<param name="mvStopFrame" value="1"/>
<param name="mvCreamFrame" value="0"/>
<param name="mlMinStopFrame" value="2mil"/>
<param name="mlMaxStopFrame" value="2mil"/>
<param name="mlMinCreamFrame" value="0mil"/>
<param name="mlMaxCreamFrame" value="0mil"/>
<param name="mlViaStopLimit" value="25mil"/>
<param name="srRoundness" value="0"/>
<param name="srMinRoundness" value="0mil"/>
<param name="srMaxRoundness" value="0mil"/>
<param name="slThermalIsolate" value="10mil"/>
<param name="slThermalsForVias" value="0"/>
<param name="dpMaxLengthDifference" value="10mm"/>
<param name="dpGapFactor" value="2.5"/>
<param name="checkGrid" value="0"/>
<param name="checkAngle" value="0"/>
<param name="checkFont" value="1"/>
<param name="checkRestrict" value="0"/>
<param name="useDiameter" value="13"/>
<param name="maxErrors" value="50"/>
</designrules>
<autorouter>
<pass name="Default">
<param name="RoutingGrid" value="50mil"/>
<param name="AutoGrid" value="1"/>
<param name="Efforts" value="0"/>
<param name="TopRouterVariant" value="1"/>
<param name="tpViaShape" value="round"/>
<param name="PrefDir.1" value="|"/>
<param name="PrefDir.2" value="0"/>
<param name="PrefDir.3" value="0"/>
<param name="PrefDir.4" value="0"/>
<param name="PrefDir.5" value="0"/>
<param name="PrefDir.6" value="0"/>
<param name="PrefDir.7" value="0"/>
<param name="PrefDir.8" value="0"/>
<param name="PrefDir.9" value="0"/>
<param name="PrefDir.10" value="0"/>
<param name="PrefDir.11" value="0"/>
<param name="PrefDir.12" value="0"/>
<param name="PrefDir.13" value="0"/>
<param name="PrefDir.14" value="0"/>
<param name="PrefDir.15" value="0"/>
<param name="PrefDir.16" value="-"/>
<param name="cfVia" value="8"/>
<param name="cfNonPref" value="5"/>
<param name="cfChangeDir" value="2"/>
<param name="cfOrthStep" value="2"/>
<param name="cfDiagStep" value="3"/>
<param name="cfExtdStep" value="0"/>
<param name="cfBonusStep" value="1"/>
<param name="cfMalusStep" value="1"/>
<param name="cfPadImpact" value="4"/>
<param name="cfSmdImpact" value="4"/>
<param name="cfBusImpact" value="0"/>
<param name="cfHugging" value="3"/>
<param name="cfAvoid" value="4"/>
<param name="cfPolygon" value="10"/>
<param name="cfBase.1" value="0"/>
<param name="cfBase.2" value="1"/>
<param name="cfBase.3" value="1"/>
<param name="cfBase.4" value="1"/>
<param name="cfBase.5" value="1"/>
<param name="cfBase.6" value="1"/>
<param name="cfBase.7" value="1"/>
<param name="cfBase.8" value="1"/>
<param name="cfBase.9" value="1"/>
<param name="cfBase.10" value="1"/>
<param name="cfBase.11" value="1"/>
<param name="cfBase.12" value="1"/>
<param name="cfBase.13" value="1"/>
<param name="cfBase.14" value="1"/>
<param name="cfBase.15" value="1"/>
<param name="cfBase.16" value="0"/>
<param name="mnVias" value="20"/>
<param name="mnSegments" value="9999"/>
<param name="mnExtdSteps" value="9999"/>
<param name="mnRipupLevel" value="10"/>
<param name="mnRipupSteps" value="100"/>
<param name="mnRipupTotal" value="100"/>
</pass>
<pass name="Follow-me" refer="Default" active="yes">
</pass>
<pass name="Busses" refer="Default" active="yes">
<param name="cfNonPref" value="4"/>
<param name="cfBusImpact" value="4"/>
<param name="cfHugging" value="0"/>
<param name="mnVias" value="0"/>
</pass>
<pass name="Route" refer="Default" active="yes">
</pass>
<pass name="Optimize1" refer="Default" active="yes">
<param name="cfVia" value="99"/>
<param name="cfExtdStep" value="10"/>
<param name="cfHugging" value="1"/>
<param name="mnExtdSteps" value="1"/>
<param name="mnRipupLevel" value="0"/>
</pass>
<pass name="Optimize2" refer="Optimize1" active="yes">
<param name="cfNonPref" value="0"/>
<param name="cfChangeDir" value="6"/>
<param name="cfExtdStep" value="0"/>
<param name="cfBonusStep" value="2"/>
<param name="cfMalusStep" value="2"/>
<param name="cfPadImpact" value="2"/>
<param name="cfSmdImpact" value="2"/>
<param name="cfHugging" value="0"/>
</pass>
<pass name="Optimize3" refer="Optimize2" active="yes">
<param name="cfChangeDir" value="8"/>
<param name="cfPadImpact" value="0"/>
<param name="cfSmdImpact" value="0"/>
</pass>
<pass name="Optimize4" refer="Optimize3" active="yes">
<param name="cfChangeDir" value="25"/>
</pass>
</autorouter>
<elements>
<element name="DISPLAY" library="pinhead" package="2X08" value="" x="45.72" y="26.67" rot="R90"/>
<element name="IR" library="adafruit" package="PNA460XM" value="PNA460XM" x="10.16" y="2.54"/>
<element name="PARTICLE" library="Spark" package="SPARK_CORE" value="" x="11.43" y="26.67"/>
<element name="R1" library="SparkFun-Resistors" package="AXIAL-0.4" value="10K" x="16.51" y="35.56" rot="R90"/>
<element name="R2" library="SparkFun-Resistors" package="AXIAL-0.4" value="100" x="27.94" y="2.54"/>
<element name="R3" library="SparkFun-Resistors" package="AXIAL-0.4" value="56K" x="27.94" y="7.62"/>
<element name="C1" library="SparkFun-Capacitors" package="CPOL-RADIAL-10UF-25V" value="10uF" x="17.78" y="3.81" rot="R270"/>
<element name="J1" library="Spark" package="POWER_JACK_PTH_LOCK" value="" x="39.37" y="-2.54"/>
<element name="DHT22" library="RHT03_DHT-22_AM2302" package="RHT03_DHT-22/RA" value="" x="33.02" y="17.78">
<attribute name="PROD_ID" value="SEN-10167" x="33.02" y="17.78" size="1.778" layer="27" display="off"/>
</element>
</elements>
<signals>
<signal name="GND">
<contactref element="PARTICLE" pad="2"/>
<contactref element="J1" pad="GNDBREAK"/>
<contactref element="J1" pad="GND"/>
<contactref element="C1" pad="2"/>
<contactref element="DISPLAY" pad="2"/>
<contactref element="DISPLAY" pad="4"/>
<contactref element="DISPLAY" pad="6"/>
<contactref element="DHT22" pad="GND"/>
<wire x1="10.16" y1="3.81" x2="11.43" y2="5.08" width="1.27" layer="16"/>
<wire x1="11.43" y1="5.08" x2="17.78" y2="5.08" width="1.27" layer="16"/>
<wire x1="44.45" y1="17.78" x2="36.83" y2="17.78" width="1.27" layer="16"/>
<wire x1="43.1316" y1="8.16" x2="42.37" y2="6.89" width="1.27" layer="16"/>
<wire x1="42.37" y1="6.89" x2="39.3954" y2="4.017" width="1.27" layer="16"/>
<wire x1="2.54" y1="38.1" x2="8.89" y2="38.1" width="1.27" layer="16"/>
<wire x1="8.89" y1="38.1" x2="13.97" y2="33.02" width="1.27" layer="16"/>
<wire x1="20.32" y1="33.02" x2="13.97" y2="33.02" width="1.27" layer="16"/>
<wire x1="13.97" y1="33.02" x2="13.97" y2="15.24" width="1.27" layer="16"/>
<wire x1="13.97" y1="15.24" x2="17.78" y2="11.43" width="1.27" layer="16"/>
<wire x1="44.45" y1="17.78" x2="44.45" y2="20.32" width="1.27" layer="16"/>
<wire x1="44.45" y1="20.32" x2="44.45" y2="22.86" width="1.27" layer="16"/>
<wire x1="17.78" y1="11.43" x2="17.78" y2="5.08" width="1.27" layer="16"/>
<wire x1="17.78" y1="5.08" x2="38.18" y2="5.08" width="1.27" layer="16"/>
<wire x1="38.18" y1="5.08" x2="39.3954" y2="4.017" width="1.27" layer="16"/>
<wire x1="44.45" y1="17.78" x2="44.45" y2="7.27" width="1.27" layer="16"/>
<wire x1="44.45" y1="7.27" x2="43.1316" y2="8.16" width="1.27" layer="16"/>
<polygon width="1.27" layer="16" isolate="0.3048">
<vertex x="1.27" y="1.27"/>
<vertex x="1.27" y="48.26"/>
<vertex x="49.53" y="48.26"/>
<vertex x="49.53" y="1.27"/>
</polygon>
<contactref element="PARTICLE" pad="21"/>
<contactref element="IR" pad="2"/>
</signal>
<signal name="VDDA">
</signal>
<signal name="CS">
<contactref element="DISPLAY" pad="16"/>
<contactref element="PARTICLE" pad="18"/>
<wire x1="20.32" y1="25.4" x2="25.4" y2="25.4" width="0.4064" layer="1"/>
<wire x1="25.4" y1="25.4" x2="34.29" y2="35.56" width="0.4064" layer="1"/>
<wire x1="34.29" y1="35.56" x2="44.45" y2="35.56" width="0.4064" layer="1"/>
</signal>
<signal name="WR">
<contactref element="DISPLAY" pad="12"/>
<contactref element="PARTICLE" pad="17"/>
<wire x1="20.32" y1="22.86" x2="25.4" y2="22.86" width="0.4064" layer="1"/>
<wire x1="25.4" y1="22.86" x2="31.75" y2="30.48" width="0.4064" layer="1"/>
<wire x1="31.75" y1="30.48" x2="44.45" y2="30.48" width="0.4064" layer="1"/>
</signal>
<signal name="DATA">
<contactref element="DISPLAY" pad="10"/>
<contactref element="PARTICLE" pad="16"/>
<wire x1="20.32" y1="20.32" x2="25.4" y2="20.32" width="0.4064" layer="1"/>
<wire x1="25.4" y1="20.32" x2="31.75" y2="27.94" width="0.4064" layer="1"/>
<wire x1="31.75" y1="27.94" x2="44.45" y2="27.94" width="0.4064" layer="1"/>
</signal>
<signal name="CLK">
<contactref element="DISPLAY" pad="15"/>
<contactref element="PARTICLE" pad="19"/>
<wire x1="20.32" y1="27.94" x2="25.4" y2="27.94" width="0.4064" layer="1"/>
<wire x1="25.4" y1="27.94" x2="34.29" y2="38.1" width="0.4064" layer="1"/>
<wire x1="34.29" y1="38.1" x2="45.72" y2="38.1" width="0.4064" layer="1"/>
<wire x1="45.72" y1="38.1" x2="46.99" y2="36.83" width="0.4064" layer="1"/>
<wire x1="46.99" y1="36.83" x2="46.99" y2="35.56" width="0.4064" layer="1"/>
</signal>
<signal name="3V3">
<contactref element="PARTICLE" pad="24"/>
<contactref element="R1" pad="P$2"/>
<contactref element="DHT22" pad="VDD"/>
<wire x1="20.32" y1="40.64" x2="16.51" y2="40.64" width="0.4064" layer="16"/>
<wire x1="29.21" y1="17.78" x2="25.4" y2="17.78" width="0.4064" layer="16"/>
<wire x1="25.4" y1="17.78" x2="24.13" y2="19.05" width="0.4064" layer="16"/>
<wire x1="24.13" y1="19.05" x2="24.13" y2="39.37" width="0.4064" layer="16"/>
<wire x1="24.13" y1="39.37" x2="22.86" y2="40.64" width="0.4064" layer="16"/>
<wire x1="22.86" y1="40.64" x2="20.32" y2="40.64" width="0.4064" layer="16"/>
</signal>
<signal name="5V">
<contactref element="J1" pad="PWR"/>
<contactref element="PARTICLE" pad="1"/>
<contactref element="R2" pad="P$2"/>
<contactref element="R3" pad="P$2"/>
<contactref element="DISPLAY" pad="5"/>
<contactref element="DISPLAY" pad="1"/>
<wire x1="33.02" y1="7.62" x2="33.02" y2="2.54" width="1.27" layer="1"/>
<wire x1="33.02" y1="9.89" x2="6.62" y2="9.89" width="1.27" layer="1"/>
<wire x1="6.62" y1="9.89" x2="5.08" y2="11.43" width="1.27" layer="1"/>
<wire x1="5.08" y1="11.43" x2="5.08" y2="39.37" width="1.27" layer="1"/>
<wire x1="5.08" y1="39.37" x2="3.81" y2="40.64" width="1.27" layer="1"/>
<wire x1="3.81" y1="40.64" x2="2.54" y2="40.64" width="1.27" layer="1"/>
<wire x1="33.02" y1="7.62" x2="33.02" y2="9.89" width="1.27" layer="1"/>
<wire x1="39.37" y1="11.3378" x2="39.37" y2="13.97" width="1.27" layer="1"/>
<wire x1="39.37" y1="13.97" x2="40.64" y2="15.24" width="1.27" layer="1"/>
<wire x1="40.64" y1="15.24" x2="45.72" y2="15.24" width="1.27" layer="1"/>
<wire x1="45.72" y1="15.24" x2="46.99" y2="16.51" width="1.27" layer="1"/>
<wire x1="46.99" y1="16.51" x2="46.99" y2="17.78" width="1.27" layer="1"/>
<contactref element="DISPLAY" pad="3"/>
<wire x1="46.99" y1="17.78" x2="46.99" y2="20.32" width="1.27" layer="1"/>
<wire x1="46.99" y1="20.32" x2="46.99" y2="22.86" width="1.27" layer="1"/>
<wire x1="33.02" y1="9.89" x2="33.02" y2="10.16" width="1.27" layer="1"/>
<wire x1="33.02" y1="10.16" x2="34.29" y2="11.43" width="1.27" layer="1"/>
<wire x1="34.29" y1="11.43" x2="39.2778" y2="11.43" width="1.27" layer="1"/>
<wire x1="39.2778" y1="11.43" x2="39.37" y2="11.3378" width="1.27" layer="1"/>
</signal>
<signal name="IR">
<contactref element="PARTICLE" pad="13"/>
<contactref element="IR" pad="1"/>
<contactref element="R3" pad="P$1"/>
<wire x1="22.86" y1="7.62" x2="22.86" y2="11.43" width="0.4064" layer="16"/>
<wire x1="22.86" y1="11.43" x2="21.59" y2="12.7" width="0.4064" layer="16"/>
<wire x1="21.59" y1="12.7" x2="20.32" y2="12.7" width="0.4064" layer="16"/>
<wire x1="22.86" y1="7.62" x2="8.89" y2="7.62" width="0.4064" layer="1"/>
<wire x1="8.89" y1="7.62" x2="7.62" y2="6.35" width="0.4064" layer="1"/>
<wire x1="7.62" y1="6.35" x2="7.62" y2="2.54" width="0.4064" layer="1"/>
</signal>
<signal name="DHT">
<contactref element="PARTICLE" pad="14"/>
<contactref element="R1" pad="P$1"/>
<contactref element="DHT22" pad="DATA"/>
<wire x1="20.32" y1="15.24" x2="17.78" y2="15.24" width="0.4064" layer="1"/>
<wire x1="17.78" y1="15.24" x2="16.51" y2="16.51" width="0.4064" layer="1"/>
<wire x1="16.51" y1="16.51" x2="16.51" y2="30.48" width="0.4064" layer="1"/>
<wire x1="20.32" y1="15.24" x2="30.48" y2="15.24" width="0.4064" layer="1"/>
<wire x1="30.48" y1="15.24" x2="31.75" y2="16.51" width="0.4064" layer="1"/>
<wire x1="31.75" y1="16.51" x2="31.75" y2="17.78" width="0.4064" layer="1"/>
</signal>
<signal name="VCC">
<contactref element="IR" pad="3"/>
<contactref element="R2" pad="P$1"/>
<contactref element="C1" pad="1"/>
<wire x1="12.7" y1="2.54" x2="17.78" y2="2.54" width="0.4064" layer="1"/>
<wire x1="17.78" y1="2.54" x2="22.86" y2="2.54" width="0.4064" layer="1"/>
</signal>
<signal name="N$1">
<contactref element="DISPLAY" pad="13"/>
</signal>
<signal name="N$3">
<contactref element="DISPLAY" pad="14"/>
</signal>
<signal name="N$7">
<contactref element="DISPLAY" pad="11"/>
</signal>
<signal name="N$8">
<contactref element="DISPLAY" pad="8"/>
</signal>
<signal name="N$4">
<contactref element="DISPLAY" pad="9"/>
</signal>
<signal name="N$5">
<contactref element="DISPLAY" pad="7"/>
</signal>
<signal name="3V3*">
<contactref element="PARTICLE" pad="22"/>
</signal>
</signals>
</board>
</drawing>
<compatibility>
<note version="6.3" minversion="6.2.2" severity="warning">
Since Version 6.2.2 text objects can contain more than one line,
which will not be processed correctly with this version.
</note>
</compatibility>
</eagle>
